Analysis
…
Using Association Rule Learning, we found that the strongest associations exist between practitioners with the following characteristics:

Using 5 EHR products across 2 different vendors in the state of Minnesota

Using 7 EHR products across 2 different vendors in the state of California

## # A tibble: 66 x 2
##        Primary.specialty   num
##                   <fctr> <int>
##  1             OPTOMETRY  5939
##  2          CHIROPRACTIC  4278
##  3           DERMATOLOGY  2970
##  4         OPHTHALMOLOGY  2359
##  5       FAMILY PRACTICE  1996
##  6     INTERNAL MEDICINE  1375
##  7 OBSTETRICS/GYNECOLOGY   877
##  8              PODIATRY   847
##  9            PSYCHIATRY   740
## 10             NEUROLOGY   558
## # ... with 56 more rows
…
